../Core/Src/main.c:89:6:HAL_CAN_RxFifo0MsgPendingCallback	16	static
../Core/Src/main.c:95:6:SPI_Write	16	static
../Core/Src/main.c:106:6:SPI_Read	24	static
../Core/Src/main.c:118:6:LIS3DSH_Init	16	static
../Core/Src/main.c:124:6:LIS3DSH_WaitForDataAvail	16	static
../Core/Src/main.c:132:6:LIS3DSH_ReadData	24	static
../Core/Src/main.c:152:5:main	48	static
../Core/Src/main.c:257:6:SystemClock_Config	88	static
../Core/Src/main.c:303:13:MX_CAN1_Init	48	static
../Core/Src/main.c:351:13:MX_SPI1_Init	8	static
../Core/Src/main.c:389:13:MX_GPIO_Init	48	static
../Core/Src/main.c:444:6:Error_Handler	4	static,ignoring_inline_asm
