../Core/Src/main.c:80:5:main	8	static
../Core/Src/main.c:210:6:SystemClock_Config	88	static
../Core/Src/main.c:256:13:MX_ADC1_Init	24	static
../Core/Src/main.c:308:13:MX_ADC2_Init	24	static
../Core/Src/main.c:360:13:MX_ADC3_Init	24	static
../Core/Src/main.c:412:13:MX_CAN1_Init	48	static
../Core/Src/main.c:460:13:MX_USART2_UART_Init	8	static
../Core/Src/main.c:493:13:MX_GPIO_Init	48	static
../Core/Src/main.c:525:6:HAL_ADC_ConvCpltCallback	32	static
../Core/Src/main.c:579:6:Error_Handler	8	static,ignoring_inline_asm
