../Core/Src/stm32f4xx_hal_msp.c:63:6:HAL_MspInit	16	static
../Core/Src/stm32f4xx_hal_msp.c:87:6:HAL_ADC_MspInit	64	static
../Core/Src/stm32f4xx_hal_msp.c:171:6:HAL_ADC_MspDeInit	16	static
../Core/Src/stm32f4xx_hal_msp.c:260:6:HAL_CAN_MspInit	48	static
../Core/Src/stm32f4xx_hal_msp.c:299:6:HAL_CAN_MspDeInit	16	static
../Core/Src/stm32f4xx_hal_msp.c:330:6:HAL_UART_MspInit	48	static
../Core/Src/stm32f4xx_hal_msp.c:366:6:HAL_UART_MspDeInit	16	static
